{
  "data": {
    "pageNumber": 2,
    "hasNext": false,
    "hasPrev": true,
    "firstPage": 1,
    "prevPage": 1,
    "nextPage": 3,
    "lastPage": 2,
    "pageSize": 18,
    "totalCount": 30,
    "totalPages": 2,
    "result": [{
      "SN": "88461efa-46fa-43b0-80d8-85bace9d7194",
      "coalType": "原煤",
      "driverName": "李四",
      "grossWeight": 40.0,
      "id": 24,
      "imagesURL": "",
      "licensePlateNumber": "沪L56705",
      "mineId": "CM5",
      "mineName": "5矿企",
      "motorcycleType": "三轴货车",
      "netWeight": 21.0,
      "recordDate": "2012-07-30T00:00:00",
      "stationId": "S1",
      "stationName": "1验票站",
      "tareWeight": 8.0,
      "transitDate": "2012-04-18T00:00:00"
    }, {
      "SN": "e87d825a-8889-4353-91b9-53b50c6bbb18",
      "coalType": "焦粉",
      "driverName": "李四",
      "grossWeight": 38.0,
      "id": 23,
      "imagesURL": "",
      "licensePlateNumber": "苏H26676",
      "mineId": "CM7",
      "mineName": "7矿企",
      "motorcycleType": "二轴货车",
      "netWeight": 24.0,
      "recordDate": "2012-01-01T00:00:00",
      "stationId": "S3",
      "stationName": "3验票站",
      "tareWeight": 9.0,
      "transitDate": "2012-08-08T00:00:00"
    }, {
      "SN": "9375dfef-b131-4380-b133-6187de2e613b",
      "coalType": "原煤",
      "driverName": "李四",
      "grossWeight": 32.0,
      "id": 22,
      "imagesURL": "",
      "licensePlateNumber": "闽A32654",
      "mineId": "CM4",
      "mineName": "4矿企",
      "motorcycleType": "低速货车",
      "netWeight": 22.0,
      "recordDate": "2012-08-02T00:00:00",
      "stationId": "S5",
      "stationName": "5验票站",
      "tareWeight": 8.0,
      "transitDate": "2012-03-22T00:00:00"
    }, {
      "SN": "1b056825-9f55-42c0-90a0-8dd08ee03a9a",
      "coalType": "原煤",
      "driverName": "张三",
      "grossWeight": 37.0,
      "id": 21,
      "imagesURL": "",
      "licensePlateNumber": "鄂I24165",
      "mineId": "CM2",
      "mineName": "2矿企",
      "motorcycleType": "二轴货车",
      "netWeight": 22.0,
      "recordDate": "2012-04-08T00:00:00",
      "stationId": "S4",
      "stationName": "4验票站",
      "tareWeight": 6.0,
      "transitDate": "2012-03-17T00:00:00"
    }, {
      "SN": "533aea1a-f1af-45d3-bc85-64f652685a5f",
      "coalType": "焦粉",
      "driverName": "赵六",
      "grossWeight": 33.0,
      "id": 20,
      "imagesURL": "",
      "licensePlateNumber": "陕I27136",
      "mineId": "CM10",
      "mineName": "10矿企",
      "motorcycleType": "二轴货车",
      "netWeight": 25.0,
      "recordDate": "2012-01-26T00:00:00",
      "stationId": "S2",
      "stationName": "2验票站",
      "tareWeight": 5.0,
      "transitDate": "2012-01-25T00:00:00"
    }, {
      "SN": "7f09603e-d92e-43d1-9776-bf58600ba141",
      "coalType": "原煤",
      "driverName": "张三",
      "grossWeight": 35.0,
      "id": 19,
      "imagesURL": "",
      "licensePlateNumber": "渝N67820",
      "mineId": "CM1",
      "mineName": "1矿企",
      "motorcycleType": "低速货车",
      "netWeight": 25.0,
      "recordDate": "2012-08-11T00:00:00",
      "stationId": "S1",
      "stationName": "1验票站",
      "tareWeight": 9.0,
      "transitDate": "2012-06-06T00:00:00"
    }, {
      "SN": "01f9b2c5-f2ce-45ac-a055-22bfbb2973c5",
      "coalType": "焦粉",
      "driverName": "王五",
      "grossWeight": 39.0,
      "id": 18,
      "imagesURL": "",
      "licensePlateNumber": "闽F74977",
      "mineId": "CM4",
      "mineName": "4矿企",
      "motorcycleType": "二轴货车",
      "netWeight": 21.0,
      "recordDate": "2012-08-31T00:00:00",
      "stationId": "S4",
      "stationName": "4验票站",
      "tareWeight": 8.0,
      "transitDate": "2012-09-17T00:00:00"
    }, {
      "SN": "3ce4af32-c51c-42d6-b1f4-c784ca2ad60e",
      "coalType": "焦粉",
      "driverName": "赵六",
      "grossWeight": 35.0,
      "id": 17,
      "imagesURL": "",
      "licensePlateNumber": "苏L59285",
      "mineId": "CM9",
      "mineName": "9矿企",
      "motorcycleType": "二轴货车",
      "netWeight": 20.0,
      "recordDate": "2012-12-25T00:00:00",
      "stationId": "S4",
      "stationName": "4验票站",
      "tareWeight": 5.0,
      "transitDate": "2012-09-16T00:00:00"
    }, {
      "SN": "e2f31cbc-4334-4964-8229-5441380c4cfc",
      "coalType": "焦粉",
      "driverName": "赵六",
      "grossWeight": 40.0,
      "id": 16,
      "imagesURL": "",
      "licensePlateNumber": "闽R84976",
      "mineId": "CM10",
      "mineName": "10矿企",
      "motorcycleType": "三轴货车",
      "netWeight": 22.0,
      "recordDate": "2012-02-24T00:00:00",
      "stationId": "S5",
      "stationName": "5验票站",
      "tareWeight": 5.0,
      "transitDate": "2012-09-20T00:00:00"
    }, {
      "SN": "d5ac5ee2-8e60-4357-a0f2-da6ad376c58e",
      "coalType": "原煤",
      "driverName": "李四",
      "grossWeight": 35.0,
      "id": 15,
      "imagesURL": "",
      "licensePlateNumber": "琼N50350",
      "mineId": "CM8",
      "mineName": "8矿企",
      "motorcycleType": "低速货车",
      "netWeight": 25.0,
      "recordDate": "2012-11-03T00:00:00",
      "stationId": "S4",
      "stationName": "4验票站",
      "tareWeight": 10.0,
      "transitDate": "2012-01-13T00:00:00"
    }, {
      "SN": "4de0c4b0-b76c-433a-b88a-e93e0d7207a4",
      "coalType": "原煤",
      "driverName": "王五",
      "grossWeight": 30.0,
      "id": 14,
      "imagesURL": "",
      "licensePlateNumber": "渝S98547",
      "mineId": "CM4",
      "mineName": "4矿企",
      "motorcycleType": "三轴货车",
      "netWeight": 20.0,
      "recordDate": "2012-10-07T00:00:00",
      "stationId": "S1",
      "stationName": "1验票站",
      "tareWeight": 7.0,
      "transitDate": "2012-08-29T00:00:00"
    }, {
      "SN": "100a80f1-2cdf-4607-b69b-1816ffa5cabe",
      "coalType": "焦粉",
      "driverName": "张三",
      "grossWeight": 35.0,
      "id": 13,
      "imagesURL": "",
      "licensePlateNumber": "吉G13386",
      "mineId": "CM4",
      "mineName": "4矿企",
      "motorcycleType": "二轴货车",
      "netWeight": 25.0,
      "recordDate": "2012-07-10T00:00:00",
      "stationId": "S4",
      "stationName": "4验票站",
      "tareWeight": 6.0,
      "transitDate": "2012-08-22T00:00:00"
    }]
  }
}
